{
  "consent": {
    "title": "सहमति",
    "points": [
      "मैं समझता हूं कि मेरे द्वारा दर्ज की गई जानकारी का उपयोग मधुमेह पर एक शोध अध्ययन के लिए किया जाएगा",
      "मुझे इस बात की भी जानकारी है कि किसी भी वक्त में इस गतिविधि से अलग हो सकता/ सकती हूँ । अगर मेरे मन में सवाल उठता है  तो में अपने स्वास्थ्य सलाहकार से कहूंगा/ कहूँगी और वो इस बात की जानकारी इस रिसर्च से सम्बंधित युनिवर्सिटी या अस्पताल तक पहुंचा दूँगा / दूँगी।."
    ],
    "agree_icon": "icons_artboard_2.png",
    "cancel_icon": "icons_artboard_1.png",
    "audio_file": "hindi.mp3"
  },
  "sociodemographic_data": {
    "title": "सामाजिक जनसांख्यिकीय विवरण ",
    "questions": [
      {
        "question": "आपकी उम्र क्या है?",
        "audio_file": "HQ_02.mp3",
        "answers": [
          {
            "answer": "<18",
            "icon": "icons_artboard_5.png"
          },
          {
            "answer": "18-34",
            "icon": "icons_artboard_6.png"
          },
          {
            "answer": "35-59",
            "icon": "icons_artboard_7.png"
          },
          {
            "answer": "60&>",
            "icon": "icons_artboard_8.png"
          }
        ]
      },
      {
        "question": "आप पुरुष हैं या महिला?",
        "audio_file": "HQ_03.mp3",
        "answers": [
          {
            "answer": "पुरुष",
            "icon": "icons_artboard_9.png"
          },
          {
            "answer": "स्त्री",
            "icon": "icons_artboard_10.png"
          }
        ]
      },
      {
        "question": "आप विवाहित हैं या अविवाहित?",
        "audio_file": "HQ_04.mp3",
        "answers": [
          {
            "answer": "विवाहित",
            "icon": "icons_artboard_11.png"
          },
          {
            "answer": "अविवाहित",
            "icon": "icons_artboard_12.png"
          }
        ]
      },
      {
        "question": "आपके घर में कितने लोग रहते हैं?",
        "audio_file": "HQ_05.mp3",
        "answer_type": "number"
      },
      {
        "question": "आप कभी स्कूल गए हैं?",
        "audio_file": "HQ_06.mp3",
        "answers": [
          {
            "answer": "1",
            "icon": "icons_artboard_4.png",
            "questions": [
              {
                "question": "तो कहाँ तक शिक्षा प्राप्त की हैं?",
                "audio_file": "HQ_07.mp3",
                "answers": [
                  {
                    "answer": "1-5",
                    "icon": "icons_artboard_13.png"
                  },
                  {
                    "answer": "6-8",
                    "icon": "icons_artboard_14.png"
                  },
                  {
                    "answer": "9-10",
                    "icon": "icons_artboard_15.png"
                  },
                  {
                    "answer": "पीयूसी",
                    "icon": "icons_artboard_16.png"
                  },
                  {
                    "answer": "कॉलेज स्नातक",
                    "icon": "icons_artboard_17.png"
                  }
                ]
              }
            ]
          },
          {
            "answer": "2",
            "icon": "icons_artboard_3.png"
          }
        ]
      },
      {
        "question": "क्या आप घर से बाहर जाकर काम करते हैं?",
        "audio_file": "HQ_08.mp3",
        "answers": [
          {
            "answer": "1",
            "icon": "icons_artboard_4.png"
          },
          {
            "answer": "2",
            "icon": "icons_artboard_3.png"
          }
        ]
      },
      {
        "question": "क्या आप तम्बाकू या बीड़ी या सिगरेट पीते हैं?",
        "audio_file": "HQ_09.mp3",
        "answers": [
          {
            "answer": "1",
            "icon": "icons_artboard_4.png"
          },
          {
            "answer": "2",
            "icon": "icons_artboard_3.png"
          }
        ]
      },
      {
        "question": "क्या आप शराब पीते हैं?",
        "audio_file": "HQ_10.mp3",
        "answers": [
          {
            "answer": "1",
            "icon": "icons_artboard_4.png"
          },
          {
            "answer": "2",
            "icon": "icons_artboard_3.png"
          }
        ]
      },
      {
        "question": "क्या आपको बताया गया है कि आपको मधुमेह या उच्च रक्त शर्करा है?",
        "audio_file": "HQ_11.mp3",
        "answers": [
          {
            "answer": "1",
            "icon": "icons_artboard_4.png"
          },
          {
            "answer": "2",
            "icon": "icons_artboard_3.png"
          }
        ]
      }
    ]
  },
  "video_files": [
    {
      "title": "डायबिटीज क्या है?",
      "file_name": "dbs_hpart1.mp4"
    },
    {
      "title": "अगर चीनी रोग  मुझे मधुमेह है तो क्या हो सकता है?",
      "file_name": "dbs_hpart2.mp4"
    },
    {
      "title": "मैं मधुमेह को कैसे रोक और प्रबंधित कर सकता हूं?",
      "file_name": "dbs_hpart3.mp4"
    },
    {
      "title": "ऐसे वक्त पर क्या करना चाहिए?",
      "file_name": "dbs_hpart4.mp4"
    }
  ],
  "questionnaire": [
    {
      "title": "डायबिटीज (मधुमेह)  क्या है?",
      "question": "इंसुलिन हमारे शरीर में किस वस्तु की तरह काम करता है? ग्लूकोज को अंदर जाने से रोकने के लिए सेल को बंद करने के लिए ग्लूकोज या दरवाजे को बंद करने के लिए सेल को अनलॉक करने की कुंजी?",
      "audio_file": "HQ_12.mp3,HQ_13.mp3,HQ_13a.mp3",
      "answers": [
        {
          "answer": "1",
          "icon": "icons_artboard_51.png"
        },
        {
          "answer": "2",
          "icon": "icons_artboard_52.png"
        }
      ],
      "correct_answer": "1"
    },
    {
      "title": "अगर मुझे डायबिटीज है तो क्या हो सकता है?",
      "question": "यदि अनुपचारित छोड़ दिया जाए, तो मधुमेह अंधापन का कारण बन सकता है",
      "audio_file": "HQ_14.mp3,HQ_15.mp3",
      "answers": [
        {
          "answer": "1",
          "icon": "icons_artboard_2.png"
        },
        {
          "answer": "2",
          "icon": "icons_artboard_1.png"
        }
      ],
      "correct_answer": "1"
    },
    {
      "title": "मैं डायबिटीज को कैसे रोक और प्रबंधित कर सकता हूं?",
      "question": "प्रोटेन का एक अच्छा स्रोत कौन सा है?",
      "audio_file": "HQ_16.mp3,HQ_17.mp3",
      "answers": [
        {
          "answer": "1",
          "icon": "icons_artboard_53.png"
        },
        {
          "answer": "2",
          "icon": "icons_artboard_54.png"
        },
        {
          "answer": "3",
          "icon": "icons_artboard_55.png"
        }
      ],
      "answers_in_popup": "yes",
      "correct_answer": "3"
    },
    {
      "title": "मैं डायबिटीज को कैसे रोक और प्रबंधित कर सकता हूं?",
      "question": "प्रोटीन को प्रत्येक भोजन के लिए मेरी प्लेट के किस हिस्से में लेना चाहिए",
      "audio_file": "HQ_18.mp3",
      "answers": [
        {
          "answer": "1",
          "icon": "icons_artboard_56.png"
        },
        {
          "answer": "2",
          "icon": "icons_artboard_57.png"
        },
        {
          "answer": "3",
          "icon": "icons_artboard_58.png"
        }
      ],
      "answers_in_popup": "yes",
      "correct_answer": "1"
    },
    {
      "title": "मैं डायबिटीज को कैसे रोक और प्रबंधित कर सकता हूं?",
      "question": "चावल जैसे कार्बोहाइड्रेट को प्रत्येक भोजन के लिए मेरी प्लेट के किस हिस्से में लेना चाहिए?",
      "audio_file": "HQ_19.mp3",
      "answers": [
        {
          "answer": "1",
          "icon": "icons_artboard_59.png"
        },
        {
          "answer": "2",
          "icon": "icons_artboard_60.png"
        },
        {
          "answer": "3",
          "icon": "icons_artboard_61.png"
        }
      ],
      "answers_in_popup": "yes",
      "correct_answer": "1"
    },
    {
      "title": "मैं डायबिटीज को कैसे रोक और प्रबंधित कर सकता हूं?",
      "question": "सब्जियों को प्रत्येक भोजन के लिए मेरी प्लेट के किस हिस्से में लेना चाहिए?",
      "audio_file": "HQ_20.mp3",
      "answers": [
        {
          "answer": "1",
          "icon": "icons_artboard_62.png"
        },
        {
          "answer": "2",
          "icon": "icons_artboard_63.png"
        },
        {
          "answer": "3",
          "icon": "icons_artboard_64.png"
        }
      ],
      "answers_in_popup": "yes",
      "correct_answer": "2"
    },
    {
      "title": "मैं डायबिटीज को कैसे रोक और प्रबंधित कर सकता हूं?",
      "question": "स्वस्थ आहार के लिए कौन सा स्नैक सबसे अच्छा विकल्प है?",
      "audio_file": "HQ_21.mp3",
      "answers": [
        {
          "answer": "1",
          "icon": "icons_artboard_65.png"
        },
        {
          "answer": "2",
          "icon": "icons_artboard_66.png"
        },
        {
          "answer": "3",
          "icon": "icons_artboard_67.png"
        }
      ],
      "answers_in_popup": "yes",
      "correct_answer": "3"
    },
    {
      "title": "मैं डायबिटीज को कैसे रोक और प्रबंधित कर सकता हूं?",
      "question": "यदि आपको मधुमेह है तो आपको उपवास नहीं करना चाहिए। सही या गलत?",
      "audio_file": "HQ_22.mp3",
      "answers": [
        {
          "answer": "1",
          "icon": "icons_artboard_2.png"
        },
        {
          "answer": "2",
          "icon": "icons_artboard_1.png"
        }
      ],
      "correct_answer": "1"
    },
    {
      "title": "मैं डायबिटीज को कैसे रोक और प्रबंधित कर सकता हूं?",
      "question": "अधिक व्यायाम प्राप्त करने से मधुमेह को रोकने और प्रबंधन दोनों में मदद मिल सकती है।",
      "audio_file": "HQ_23.mp3",
      "answers": [
        {
          "answer": "1",
          "icon": "icons_artboard_2.png"
        },
        {
          "answer": "2",
          "icon": "icons_artboard_1.png"
        }
      ],
      "correct_answer": "1"
    },
    {
      "title": "ऐसे वक्त पर क्या करना चाहिए?",
      "question": "मुझे मधुमेह है या नहीं यह जानने का सबसे अच्छा तरीका क्या है?",
      "audio_file": "HQ_24.mp3,HQ_25.mp3",
      "answers": [
        {
          "answer": "1",
          "icon": "icons_artboard_68.png"
        },
        {
          "answer": "2",
          "icon": "icons_artboard_69.png"
        },
        {
          "answer": "3",
          "icon": "icons_artboard_70.png"
        }
      ],
      "answers_in_popup": "yes",
      "correct_answer": "2"
    }
  ],
  "location_types": [
    {
      "id": "1",
      "title": "Rural",
      "locations": [
        {
          "id": "1",
          "title": "Thangamalai"
        },
        {
          "id": "2",
          "title": "Other"
        }
      ]
    },
    {
      "id": "2",
      "title": "Urban",
      "locations": [
        {
          "id": "1",
          "title": "DJ Halli"
        },
        {
          "id": "2",
          "title": "Other"
        }
      ]
    }
  ],
  "result_message": [
    {
      "range_start": 0,
      "range_end": 4,
      "message": "अगली बार किस्मत तुम्हारा साथ देगी",
      "image": "better_luck.png"
    },
    {
      "range_start": 5,
      "range_end": 8,
      "message": "उत्तम",
      "image": "good.png"
    },
    {
      "range_start": 9,
      "range_end": 10,
      "message": "बहुत बढ़िया",
      "image": "congrats.png"
    }
  ],
  "video_rating": [
    {
      "id": "4",
      "title": "अति उत्कृष्ट"
    },
    {
      "id": "3",
      "title": "अच्छा"
    },
    {
      "id": "2",
      "title": "औसत"
    },
    {
      "id": "1",
      "title": "अच्छा नही"
    }
  ],
  "game_details": {
    "success_audio": "success.mp3",
    "error_audio": "error.mp3",
    "game_1": {
      "title": "What is diabetes?",
      "steps": [
        {
          "gif": "dbs_036.gif"
        },
        {
          "audio": "game_hdbs11.mp3",
          "video": "dbs27.mp4"
        },
        {
          "video": "dbs35.mp4"
        },
        {
          "audio": "game_hdbs12.mp3",
          "video": "dbs27.mp4"
        },
        {
          "audio": "game_hdbs13.mp3",
          "video": "dbs38.mp4"
        }
      ]
    },
    "game_2": {
      "title": "What can happen if I have diabetes?",
      "audio": "game_hdbs21.mp3",
      "game_answers": [
        "dbs_057.gif",
        "dbs_60.gif",
        "dbs_063.gif"
      ],
      "correct_answer_gif": "dbs_110.gif",
      "correct_answer_sound": "success.mp3"
    },
    "game_3": {
      "title": "How can I prevent and manage diabetes?",
      "audio": "game_hdbs31.mp3",
      "iterations": [
        {
          "items": [
            {
              "id": "1",
              "image": "rice.png"
            },
            {
              "id": "2",
              "image": "carrot.png"
            },
            {
              "id": "3",
              "image": "chicken.png"
            },
            {
              "id": "4",
              "image": "junk_1.png"
            },
            {
              "id": "5",
              "image": "wine.png"
            }
          ],
          "good_choice_partition_1_2": [
            "1",
            "3"
          ],
          "good_choice_partition_3": [
            "2"
          ],
          "good_choice_plate_image": "good_choice_1.png"
        },
        {
          "items": [
            {
              "id": "1",
              "image": "grain.png"
            },
            {
              "id": "2",
              "image": "red_beet.png"
            },
            {
              "id": "3",
              "image": "eggs.png"
            },
            {
              "id": "4",
              "image": "bread.png"
            },
            {
              "id": "5",
              "image": "junk_2.png"
            }
          ],
          "good_choice_partition_1_2": [
            "1",
            "3"
          ],
          "good_choice_partition_3": [
            "2"
          ],
          "good_choice_plate_image": "good_choice_2.png"
        },
        {
          "items": [
            {
              "id": "1",
              "image": "red_millet.png"
            },
            {
              "id": "2",
              "image": "okra.png"
            },
            {
              "id": "3",
              "image": "cheese.png"
            },
            {
              "id": "4",
              "image": "wine.png"
            },
            {
              "id": "5",
              "image": "junk_3.png"
            }
          ],
          "good_choice_partition_1_2": [
            "1",
            "3"
          ],
          "good_choice_partition_3": [
            "2"
          ],
          "good_choice_plate_image": "good_choice_3.png"
        }
      ],
      "wrong_choice_gif": "dbs_040.gif",
      "wrong_choice_sound": "error.mp3",
      "wrong_choice_speech": "game_hdbs33.mp3",
      "good_choice_gif": "dbs_036.gif",
      "good_choice_sound": "success.mp3",
      "good_choice_speech": "game_hdbs32.mp3",
      "plate_image": "plate.png"
    },
    "game_4": {
      "title": "How can I prevent and manage diabetes?",
      "audio": "game_hdbs41.mp3",
      "video": "dbs_109.mp4",
      "game_answers": [
        "dbs_109.gif",
        "dbs_110.gif",
        "dbs_100.gif",
        "dbs_113.gif"
      ],
      "correct_answer_gif": "dbs_110.gif",
      "correct_answer_sound": "success.mp3"
    }
  },
  "counselling_images": [
    "diabetesh.jpg"
  ],
  "app_texts": {
    "yes": "हाँ",
    "no": "नहीं",
    "cancel": "रद्द करना",
    "watch": "देखें",
    "submit": "प्रस्तुत",
    "export_data": "Export डेटा",
    "confirm_proceed": "क्या आप वाकई सबमिट करना और आगे बढ़ना चाहते हैं?",
    "confirm_start_new": "नया सर्वेक्षण शुरू करें?",
    "confirm_on_back": "आपकी प्रगति खो जाएगी। क्या आप वाकई वापस जाना चाहते हैं?",
    "message_select_location_type": "कृपया स्थान प्रकार चुनें",
    "message_enter_location_name": "कृपया स्थान का नाम दर्ज करें",
    "title_consent": "सहमति",
    "title_location": "स्थान",
    "title_sociodemographic_data": "सामाजिक जनसांख्यिकीय विवरण",
    "title_pre_questions": "पूर्व जागरूकता प्रश्न",
    "title_watch_video": "वीडियो देखें",
    "title_post_questions": "पोस्ट जागरूकता प्रश्न",
    "title_results": "परिणाम",
    "title_thank_you": "सर्वे पूरा",
    "location_type": "स्थान का प्रकार",
    "location_name": "स्थान का नाम",
    "continue": "जारी रहना",
    "answer": "उत्तर",
    "update_answer": "उत्तर अपडेट करें",
    "select_answer": "उत्तर का चयन करें",
    "start_pre_questions": "पहले, चलिए देखे  कि आप उच्च रक्तचाप यानी हाई ब्लड प्रेशर के बारे में क्या जानते है.",
    "start_pre_questions_audio_file": "HQ_99.wav",
    "start_post_questions": "अब, देखते हैं कि आपको उच्च बीपी के बारे में क्या याद है.",
    "start_post_questions_audio_file": "HQ_99.wav",
    "view_full_video": "पूरा वीडियो देखें",
    "view_module_video": "मॉड्यूल वीडियो देखें",
    "wrong_answer": "आपका जवाब गलत है",
    "correct_answer": "सही उत्तर",
    "your_score": "आपने स्कोर है",
    "select": "चयन",
    "start_survey": "प्रारंभ",
    "start_new": "नई शुरुआत",
    "done": "किया हुआ",
    "watch_full_video": "पूरा वीडियो देखें",
    "start_counselling": "काउंसलिंग",
    "counselling_done": "काउंसलिंग पूरी",
    "video_rating_title": "विडियो कैसी लगी आपको?",
    "please_select_rating": "कृपया रेटिंग का चयन करें",
    "start": "Start",
    "grant_location_permission": "Please grant the location permission",
    "select_an_option": "Please select an option"
  }
}